{
  "version" : 1,
  "businessRule": {
    "version": 1,
    "items": [
      {
        "className": "com.wouter.emailvalidator.ValidateEmailBusinessRule",
        "events": [ {"event": "BeforeUpdate"},{"event": "BeforeInsert"}],
        "businessObjects": [{"name": "Person"}]
      }
    ]
  }
}
